%YAML 1.1
%TAG !u! tag:unity3d.com,2011:
--- !u!114 &11400000
MonoBehaviour:
  m_ObjectHideFlags: 0
  m_CorrespondingSourceObject: {fileID: 0}
  m_PrefabInstance: {fileID: 0}
  m_PrefabAsset: {fileID: 0}
  m_GameObject: {fileID: 0}
  m_Enabled: 1
  m_EditorHideFlags: 0
  m_Script: {fileID: 11500000, guid: eb7cf53b7c3b36a4b9f4d2b688942503, type: 3}
  m_Name: MUIP Manager
  m_EditorClassIdentifier: 
  enableDynamicUpdate: 1
  enableExtendedColorPicker: 0
  editorHints: 0
  animatedIconColor: {r: 1, g: 1, b: 1, a: 1}
  contextBackgroundColor: {r: 0.21568628, g: 0.29411766, b: 0.37254903, a: 1}
  buttonFont: {fileID: 11400000, guid: db5ed40556c14ca4389409a7472bccc6, type: 2}
  buttonNormalColor: {r: 0, g: 0.40000004, b: 0.7019608, a: 255}
  buttonAccentColor: {r: 1, g: 1, b: 1, a: 255}
  buttonDisabledAlpha: 0.402
  dropdownFont: {fileID: 11400000, guid: db5ed40556c14ca4389409a7472bccc6, type: 2}
  dropdownItemFont: {fileID: 11400000, guid: db5ed40556c14ca4389409a7472bccc6, type: 2}
  dropdownBackgroundColor: {r: 0.21568628, g: 0.29411766, b: 0.37254903, a: 255}
  dropdownContentBackgroundColor: {r: 0.1764706, g: 0.25490198, b: 0.33333334, a: 255}
  dropdownPrimaryColor: {r: 1, g: 1, b: 1, a: 255}
  dropdownItemBackgroundColor: {r: 0.13725491, g: 0.21568628, b: 0.29411766, a: 255}
  dropdownItemPrimaryColor: {r: 1, g: 1, b: 1, a: 255}
  selectorFont: {fileID: 11400000, guid: d59bb12424ba1374584578f3fc2e0203, type: 2}
  selectorColor: {r: 0, g: 0.39607844, b: 0.7019608, a: 1}
  selectorHighlightedColor: {r: 0.95686275, g: 0.4745098, b: 0.2, a: 1}
  inputFieldFont: {fileID: 11400000, guid: db5ed40556c14ca4389409a7472bccc6, type: 2}
  inputFieldColor: {r: 1, g: 1, b: 1, a: 1}
  modalWindowTitleFont: {fileID: 11400000, guid: db5ed40556c14ca4389409a7472bccc6,
    type: 2}
  modalWindowContentFont: {fileID: 11400000, guid: db5ed40556c14ca4389409a7472bccc6,
    type: 2}
  modalWindowTitleColor: {r: 1, g: 1, b: 1, a: 1}
  modalWindowDescriptionColor: {r: 1, g: 1, b: 1, a: 1}
  modalWindowIconColor: {r: 1, g: 1, b: 1, a: 1}
  modalWindowBackgroundColor: {r: 0.1764706, g: 0.25490198, b: 0.33333334, a: 1}
  modalWindowContentPanelColor: {r: 1, g: 1, b: 1, a: 0.039215688}
  notificationTitleFont: {fileID: 11400000, guid: db5ed40556c14ca4389409a7472bccc6,
    type: 2}
  notificationTitleFontSize: 22.5
  notificationDescriptionFont: {fileID: 11400000, guid: db5ed40556c14ca4389409a7472bccc6,
    type: 2}
  notificationDescriptionFontSize: 18
  notificationThemeType: 0
  notificationBackgroundColor: {r: 0.1764706, g: 0.25490198, b: 0.33333334, a: 1}
  notificationTitleColor: {r: 1, g: 1, b: 1, a: 1}
  notificationDescriptionColor: {r: 1, g: 1, b: 1, a: 1}
  notificationIconColor: {r: 1, g: 1, b: 1, a: 1}
  progressBarLabelFont: {fileID: 11400000, guid: db5ed40556c14ca4389409a7472bccc6,
    type: 2}
  progressBarLabelFontSize: 25
  progressBarColor: {r: 1, g: 1, b: 1, a: 1}
  progressBarBackgroundColor: {r: 1, g: 1, b: 1, a: 0.05882353}
  progressBarLoopBackgroundColor: {r: 1, g: 1, b: 1, a: 1}
  progressBarLabelColor: {r: 1, g: 1, b: 1, a: 1}
  scrollbarColor: {r: 1, g: 1, b: 1, a: 1}
  scrollbarBackgroundColor: {r: 1, g: 1, b: 1, a: 0.09803922}
  sliderLabelFont: {fileID: 11400000, guid: db5ed40556c14ca4389409a7472bccc6, type: 2}
  sliderThemeType: 0
  sliderColor: {r: 0, g: 0.39607844, b: 0.7019608, a: 1}
  sliderBackgroundColor: {r: 0.95686275, g: 0.4745098, b: 0.2, a: 0.7058824}
  sliderLabelColor: {r: 1, g: 1, b: 1, a: 1}
  sliderPopupLabelColor: {r: 0.37254903, g: 0.40784314, b: 0.4509804, a: 1}
  sliderHandleColor: {r: 1, g: 1, b: 1, a: 1}
  switchBorderColor: {r: 0.95686275, g: 0.4745098, b: 0.2, a: 0.7058824}
  switchBackgroundColor: {r: 0.95686275, g: 0.4745098, b: 0.2, a: 0.7058824}
  switchHandleOnColor: {r: 0, g: 0.39607844, b: 0.7019608, a: 1}
  switchHandleOffColor: {r: 0, g: 0.39607844, b: 0.7019608, a: 0.45490196}
  toggleFont: {fileID: 11400000, guid: db5ed40556c14ca4389409a7472bccc6, type: 2}
  toggleThemeType: 0
  toggleTextColor: {r: 1, g: 1, b: 1, a: 1}
  toggleBorderColor: {r: 1, g: 1, b: 1, a: 1}
  toggleBackgroundColor: {r: 1, g: 1, b: 1, a: 0.29411766}
  toggleCheckColor: {r: 1, g: 1, b: 1, a: 1}
  tooltipFont: {fileID: 11400000, guid: db5ed40556c14ca4389409a7472bccc6, type: 2}
  tooltipFontSize: 22
  tooltipTextColor: {r: 1, g: 1, b: 1, a: 1}
  tooltipBackgroundColor: {r: 0.1764706, g: 0.25490198, b: 0.33333334, a: 1}
